%YAML 1.1
%TAG !u! tag:unity3d.com,2011:
--- !u!114 &11400000
MonoBehaviour:
  m_ObjectHideFlags: 0
  m_CorrespondingSourceObject: {fileID: 0}
  m_PrefabInstance: {fileID: 0}
  m_PrefabAsset: {fileID: 0}
  m_GameObject: {fileID: 0}
  m_Enabled: 1
  m_EditorHideFlags: 0
  m_Script: {fileID: 11500000, guid: ea5752979956c374482041fbc4caa333, type: 3}
  m_Name: AmuletInspiration
  m_EditorClassIdentifier: 
  equipmentIcon: {fileID: 21300000, guid: 9369d4deee359984dbb1c9c711b363e7, type: 3}
  isPassive: 1
  limitedCharges: 0
  charges: 0
  passiveHealth: 0
  passiveMorale: 5
  passiveCorruption: 0
  useHealth: 0
  useMorale: 0
  useCorruption: 0
  damageInflicted: 0
